DataCamp: Bayesian Regression Modeling with rstanarm
…
[1] 0.201

ss_res <- var(residuals(stan_model))
ss_total <- var(residuals(stan_model)) + var(fitted(stan_model))

1 - (ss_res / ss_total)

[1] 0.201

Posterior predictive model checks

spread_draws(stan_model, `(Intercept)`, mom_iq) |> select(-.draw)

# A tibble: 4,000 × 4
   .chain .iteration `(Intercept)` mom_iq
    <int>      <int>         <dbl>  <dbl>
 1      1          1          26.9  0.595
 2      1          2          27.5  0.585
 3      1          3          25.7  0.610
 4      1          4          21.7  0.641
 5      1          5          21.9  0.638
 6      1          6          24.0  0.632
 7      1          7          27.3  0.591
 8      1          8          28.4  0.577
 9      1          9          30.7  0.546
10      1         10          26.1  0.602
# ℹ 3,990 more rows
…
Plotting uncertainty (one line for each iteration)

draws <- spread_draws(stan_model, `(Intercept)`, mom_iq)

draws

# A tibble: 4,000 × 5
   .chain .iteration .draw `(Intercept)` mom_iq
    <int>      <int> <int>         <dbl>  <dbl>
 1      1          1     1          26.9  0.595
 2      1          2     2          27.5  0.585
 3      1          3     3          25.7  0.610
 4      1          4     4          21.7  0.641
 5      1          5     5          21.9  0.638
 6      1          6     6          24.0  0.632
 7      1          7     7          27.3  0.591
 8      1          8     8          28.4  0.577
 9      1          9     9          30.7  0.546
10      1         10    10          26.1  0.602
# ℹ 3,990 more rows
…
predict_data

# A tibble: 2 × 2
  mom_iq mom_hs
   <dbl>  <dbl>
1    110      0
2    110      1

new_predictions <- posterior_predict(model_2pred, newdata = predict_data)

new_predictions |> as_tibble()

# A tibble: 4,000 × 2
     `1`   `2`
   <dbl> <dbl>
 1 112.   63.2
 2  83.2  93.9
 3 104.  118. 
 4 108.  107. 
 5  88.9  65.7
 6  58.2  63.8
 7 119.  110. 
 8  58.2  99.5
 9  73.6  80.9
10  85.2 107. 
# ℹ 3,990 more rows
…
summary(new_predictions[, 2]) # Completed HS

   Min. 1st Qu.  Median    Mean 3rd Qu.    Max. 
   22.2    81.8    93.6    93.8   106.0   155.6 

Visualizing predictions

new_predictions <- as_tibble(new_predictions) |> set_names(c("No HS", "Completed HS"))

plot_new_predictions <- new_predictions |> gather(key = "HS", value = "predict")

plot_new_predictions

# A tibble: 8,000 × 2
   HS    predict
   <chr>   <dbl>
 1 No HS   112. 
 2 No HS    83.2
 3 No HS   104. 
 4 No HS   108. 
 5 No HS    88.9
 6 No HS    58.2
 7 No HS   119. 
 8 No HS    58.2
 9 No HS    73.6
10 No HS    85.2
# ℹ 7,990 more rows
…
